{
    "species": "cobblemon:farigiraf",
    "order": 0,
    "variations": [
      {
        "aspects": [],
        "poser": "cobblemon:farigiraf",
        "model": "cobblemon:farigiraf.geo",
        "texture": "cobblemon:textures/pokemon/0981_farigiraf/farigiraf.png",
        "layers": []
      },
      {
        "aspects": [
          "shiny"
        ],
        "texture": "cobblemon:textures/pokemon/0981_farigiraf/farigiraf_shiny.png"
      }
    ]
  }