{
    "type": "minecraft:crafting_shaped",
    "pattern": [
        "AGC",
        "GGC",
        "  C"
    ],
    "key": {
        "G": {
            "item": "minecraft:gold_ingot"
        },
        "C": {
            "item": "minecraft:copper_ingot"
        },
        "A": {
            "item": "minecraft:amethyst_shard"
        }
    },
    "result": {
        "item": "cobblemon:zoom_lens"
    }
}
